{
  "project_info": {
    "project_number": "807821811767",
    "firebase_url": "https://todolist-13d81.firebaseio.com",
    "project_id": "todolist-13d81",
    "storage_bucket": "todolist-13d81.appspot.com"
  },
  "client": [
    {
      "client_info": {
        "mobilesdk_app_id": "1:807821811767:android:3628c984e0c97f8a",
        "android_client_info": {
          "package_name": "com.example.todolist"
        }
      },
      "oauth_client": [
        {
          "client_id": "807821811767-4sqj5n4prne92sftjsv13d09k2ee715j.apps.googleusercontent.com",
          "client_type": 1,
          "android_info": {
            "package_name": "com.example.todolist",
            "certificate_hash": "20f1b32db2600dbd4ad1c8b481a1e4a7f2dc12e9"
          }
        },
        {
          "client_id": "807821811767-6dc9mgl2240okv9hbtuvpu48u4jirnm6.apps.googleusercontent.com",
          "client_type": 3
        }
      ],
      "api_key": [
        {
          "current_key": "AIzaSyDcNx3rbJIgPah0ErZJRGcSOLzdN3sKHhY"
        }
      ],
      "services": {
        "appinvite_service": {
          "other_platform_oauth_client": [
            {
              "client_id": "807821811767-6dc9mgl2240okv9hbtuvpu48u4jirnm6.apps.googleusercontent.com",
              "client_type": 3
            }
          ]
        }
      }
    }
  ],
  "configuration_version": "1"
}